"","last case before year 5","5-10","10-15","15-20",">20"
"R0 <= 5, no resurgent case in 3yrs",543,175,25,22,4
"R0 <= 5, silent circulation > 3yrs",3,6,5,8,4
"R0 <= 5, silent circulation > 5yrs",1,1,1,1,0
"5 < R0 <= 10, no resurgent case in 3yrs",513,282,73,31,12
"5 < R0 <= 10, silent circulation > 3yrs",0,7,14,7,7
"5 < R0 <= 10, silent circulation > 5yrs",0,1,4,0,0
"10 < R0 <= 15, no resurgent case in 3yrs",386,299,76,32,27
"10 < R0 <= 15, silent circulation > 3yrs",0,16,19,8,11
"10 < R0 <= 15, silent circulation > 5yrs",0,11,5,1,0
