"","last case before year 5","5-10","10-15","15-20",">20"
"R0 <= 5, no resurgent case in 3yrs",658,48,0,0,0
"R0 <= 5, silent circulation > 3yrs",60,43,0,0,0
"R0 <= 5, silent circulation > 5yrs",18,8,0,0,0
"5 < R0 <= 10, no resurgent case in 3yrs",664,122,0,0,0
"5 < R0 <= 10, silent circulation > 3yrs",123,122,0,0,0
"5 < R0 <= 10, silent circulation > 5yrs",41,49,0,0,0
"10 < R0 <= 15, no resurgent case in 3yrs",513,148,1,0,0
"10 < R0 <= 15, silent circulation > 3yrs",84,143,1,0,0
"10 < R0 <= 15, silent circulation > 5yrs",30,57,0,0,0
