"V1","V2","V3","V4"
0,2402.77158113772,1435.84250801906,18694.6694544088
0.0999999999999943,2402.40538749185,1435.53756846528,18694.2648594673
0.200000000000017,2399.65043391389,1433.45909268437,18690.7194816866
0.300000000000011,2391.97519299517,1428.0118288599,18679.0672089634
0.400000000000006,2377.10591191982,1417.84126358039,18652.6562398868
0.5,2353.23014682286,1401.89646267137,18603.5647626943
0.599999999999994,2319.11667241995,1379.48944349852,18523.0974642294
0.700000000000017,2274.18235188365,1350.33145992504,18402.3202866223
0.800000000000011,2218.5008461793,1314.53502367217,18232.5873160828
0.900000000000006,2152.75114440497,1272.57921894043,18006.0086719436
1,2078.11700150505,1225.2450964953,17715.8263036595
1.09999999999999,1996.14828982735,1173.52851425668,17357.0679812036
1.20000000000002,1908.60939411573,1118.54587527398,16928.5989801539
1.30000000000001,1817.3320716943,1061.44362164307,16433.0263557378
1.40000000000001,1724.08986416063,1003.32187016572,15876.0659796703
1.5,1630.49630932678,945.17339669342,15265.9666289175
1.59999999999999,1537.9489969501,887.851029078195,14612.8143359069
1.70000000000002,1447.59232611859,832.04688268249,13927.7788487058
1.80000000000001,1360.31246038606,778.290801764307,13222.37377558
1.90000000000001,1276.74929332411,726.959887716537,12507.7942349901
2,1197.3242510394,678.296595033174,11794.3701595608
2.09999999999999,1122.2725889939,632.429540206468,11091.1749442783
2.20000000000002,1051.67743926592,589.395321912239,10405.7897488405
2.30000000000001,985.502584583433,549.159017096586,9744.22649201285
2.40000000000001,923.62584476083,511.634909947969,9110.88549107965
2.5,865.861361877013,476.699767741207,8508.80829841457
2.59999999999999,811.984385707298,444.208954265928,7939.71808921872
2.70000000000002,761.746272747953,414.004336397611,7404.31686618319
2.80000000000001,714.890188269392,385.924583624169,6902.43731970154
2.90000000000001,671.158998990705,359.809135520927,6433.28170095198
3,630.304515025843,335.503984855045,5995.5732582272
3.09999999999999,592.089979968632,312.862811144459,5587.7364276466
3.20000000000002,556.295473567496,291.750007349036,5207.99899333483
3.30000000000001,522.71787274688,272.0406475988,4854.49336251989
3.40000000000001,491.173134031475,253.621413512616,4525.38930809824
3.5,461.494333028001,236.389486084901,4218.83063005423
3.60000000000002,433.532469418394,220.252729180046,3933.09592521889
3.70000000000002,407.154930704597,205.128835618338,3666.53581531066
3.80000000000001,382.243967664798,190.944075102632,3417.65055631241
3.90000000000001,358.696851074807,177.633666981992,3185.03678380838
4,336.421712888053,165.138841997522,2967.44807152357
4.10000000000002,315.338351832177,153.407626548738,2763.73862305516
4.20000000000002,295.376284727673,142.393576327928,2572.88518222282
4.30000000000001,276.472620400923,132.054353876207,2393.97495303024
4.40000000000001,258.573418112608,122.353090735815,2226.16836027894
4.5,241.628037147236,113.254285067917,2068.74508810928
4.60000000000002,225.592386024441,104.726368905793,1921.03982767137
4.70000000000002,210.426129907439,96.7400167250091,1782.45769970166
4.80000000000001,196.092168302025,89.26767064679,1652.45811750367
4.90000000000001,182.556064908229,82.2834807780767,1530.56244951067
5,169.785361860734,75.7628186825691,1416.31771933008
5.10000000000002,157.749291061477,69.6822780685598,1309.31229061587
5.20000000000002,146.41822386316,64.0192213554759,1209.16814287798
5.30000000000001,135.763465690423,58.751993706703,1115.52045237971
5.40000000000001,125.757141543328,53.8595687607431,1028.05415049102
5.5,116.371778765042,49.321547523306,946.432316787541
5.60000000000002,107.580439633421,45.1181932199818,870.355632948689
5.70000000000002,99.3565203481322,41.2303199720805,799.535114712082
5.80000000000001,91.6737522882833,37.6393373892985,733.691433431581
5.90000000000001,84.5062020376548,34.3272350624604,672.557271622587
6,77.8283462429538,31.2766602739438,615.869898663834
6.10000000000002,71.6150692816944,28.4708503942265,563.377436328214
6.20000000000002,65.8416889292986,25.8936507485449,514.835257916246
6.30000000000001,60.4840234091809,23.5295683212965,470.00813915953
6.40000000000001,55.5184622615681,21.3637846739012,428.669662677683
6.5,50.9220264098762,19.3821645481514,390.599477512762
6.60000000000002,46.6724219087153,17.5712582431274,355.587145448197
6.70000000000002,42.7480873460554,15.9183060685838,323.429315852467
6.80000000000001,39.128237035103,14.4112397624464,293.930927947629
6.90000000000001,35.7928981578996,13.0386788767984,266.904897620901
7,32.7229398924296,11.7899219888142,242.175589639693
7.10000000000002,29.9000941424932,10.6549335573033,219.575771592557
7.20000000000002,27.3069746975141,9.62432367227053,198.94587591663
7.30000000000001,24.9270804347226,8.68933412973741,180.134955134708
7.40000000000001,22.7447902113752,7.8418178826756,163.000956564676
7.5,20.7453562826296,7.07421047497489,147.410465047695
7.60000000000002,18.9148938895636,6.37950197951,133.23841820797
7.70000000000002,17.2403632764202,5.75121314421168,120.367867295165
7.80000000000001,15.7095462507798,5.18337038064828,108.689727427438
7.90000000000001,14.3110203155474,4.67047532747308,98.1024910164997
8,13.0341298981827,4.20747525624895,88.5119452164508
8.10000000000002,11.868954881828,3.78973571099591,79.8308882401325
8.20000000000002,10.8062773896732,3.41301406749728,71.9786422224715
8.30000000000001,9.83754784693139,3.07343252258703,64.8806974422187
8.40000000000001,8.95485043655464,2.76745147712963,58.4684862759896
8.5,8.15086800273714,2.49184460171011,52.6790814222768
8.60000000000002,7.418847015338,2.24367542616887,47.4547870932147
8.70000000000002,6.75256323368716,2.02027477874324,42.7427406879142
8.80000000000001,6.1462882201507,1.81921914521583,38.4945847033523
8.90000000000001,5.59475666733888,1.63831042696134,34.666176400613
9,5.09313473609102,1.47555716183889,31.2172886342742
9.10000000000002,4.63698971327726,1.32915692835078,28.1113032330759
9.20000000000002,4.22226110760616,1.19747983112485,25.3149202540517
9.30000000000001,3.84523313774167,1.07905318547667,22.7978937132284
9.40000000000001,3.50250861505041,0.972547426475487,20.5327868810855
9.5,3.19098430166628,0.876763106889942,18.494739130605
9.60000000000002,2.90782777713662,0.790618875493332,16.6612444561906
9.70000000000002,2.65045576364888,0.713140422819071,15.0119454967789
9.80000000000001,2.41651386236624,0.643450358611639,13.5284441928379
9.90000000000001,2.20385756945548,0.580759097544132,12.1941273105331
10,2.01053477442025,0.524356310091764,10.9940044777468
10.1,1.83476947948261,0.473603203710191,9.91455845814198
10.2,1.67494668749474,0.427925565435449,8.94360770005733
10.3,1.52959844129363,0.386807438010822,8.0701806829311
10.4,1.39739098157586,0.349785331358345,7.28440100653097
10.5,1.27711293096849,0.316442968189619,6.57738231122494
10.6,1.16766441552817,0.286406557799857,5.94113237503916
10.7,1.06804707357146,0.259340533899306,5.3684658575803
10.8,0.977354908273676,0.234943688587441,4.85292507847771
10.9,0.894765920121956,0.212945674219821,4.38870794884861
11,0.819534450879007,0.19310385817742,3.97060282109305
11.1,0.750984186266426,0.17520049689905,3.59392945142463
11.2,0.688501773823214,0.159040187764786,3.2544855880551
11.3,0.631531008201882,0.144447571391985,2.94849868770689
11.4,0.579567533814728,0.131265267550465,2.67258235905319
11.5,0.532154021235934,0.119352024093675,2.42369708931074
11.6,0.488875780520428,0.108581053982143,2.19911485444754
11.7,0.44935677634752,0.0988385392983801,1.99638724885881
11.8,0.413256012602108,0.0900222844039335,1.81331679224968
11.9,0.380264226132072,0.0820405354124276,1.64793117344379
12,0.350100919762645,0.0748108805208967,1.49846005532891
12.1,0.322511660141779,0.0682592799716394,1.36331424769014
12.2,0.297265619864559,0.0623192075086177,1.24106701370329
12.3,0.274153349853072,0.0569308791941644,1.13043729588389
12.4,0.252984767011548,0.0520405534497009,1.03027466451749
12.5,0.233587314932474,0.0475998963440671,0.939545879606158
12.6,0.215812109405234,0.0435704750070086,0.857329327613115
12.7,0.199554302244595,0.0399292609524879,0.782824311871082
12.8,0.184718259370658,0.0366466163606655,0.715318904723972
12.9,0.171203776814479,0.0336899167587115,0.654172694776207
13,0.158908671310699,0.0310274573879133,0.598808029666543
13.1,0.147732067252785,0.0286296353833932,0.548702757339925
13.2,0.137576838913573,0.0264692915306947,0.5033841105178
13.3,0.128351169306993,0.0245217593937712,0.462423481047153
13.4,0.11996942768082,0.0227647840352201,0.425431925337762
13.5,0.112352572642527,0.0211783814986891,0.392056212294847
13.6,0.105428196231647,0.0197446696065217,0.361968784593046
13.7,0.0991303611307782,0.0184476884914287,0.33484459342435
13.8,0.0933992913299661,0.0172732184301571,0.310380824841559
13.9,0.0881809822456511,0.0162086089227006,0.288302916567773
14,0.0834267787400975,0.0152426131761061,0.268363317940384
14.1,0.0790929257159618,0.0143652348039767,0.25033980095759
14.2,0.0751401354403115,0.0135675938128607,0.234033478889614
14.3,0.0715331327773566,0.0128417884259335,0.219266905449331
14.4,0.068240308993539,0.0121807992556736,0.205881882458925
14.5,0.0652333575853411,0.0115783907734618,0.193737500347197
14.6,0.0624869201074799,0.0110290139955869,0.182708450127393
14.7,0.0599782794823356,0.0105277250166717,0.172683320939541
14.8,0.0576870904800425,0.0100701201770576,0.163563031237572
14.9,0.055595137042625,0.0096522767794588,0.155259475577623
15,0.0536861097456866,0.00927069708771602,0.14769429853186
15.1,0.0519454048470805,0.00892225893389507,0.140797773841769
15.2,0.0503599467706708,0.00860417430195985,0.13450785074383
15.3,0.0489180321817102,0.0083139534202936,0.128769154660404
15.4,0.0476091916435,0.00804937218042501,0.123532386496663
15.5,0.0464240658596964,0.00780844297348732,0.118753641378134
15.6,0.0453542954599095,0.00758938946337537,0.114393738098443
15.7,0.0443924238411697,0.00739062474231397,0.110417685471475
15.8,0.0435318118169841,0.00721073194794493,0.106794240418822
15.9,0.0427665622914292,0.00704844700479217,0.103495519608259
16,0.0420914535724525,0.00690264350770495,0.100496631115675
16.1,0.04150188058761,0.00677231955214937,0.097775349393487
16.2,0.0409938034212632,0.00665658614072549,0.0953118330799043
16.3,0.0405637023880379,0.0065546569370435,0.0930883884429932
16.4,0.0402085388137878,0.00646583929200391,0.0910892561078072
16.5,0.0399257209399618,0.00638952642994816,0.0893004206009209
16.6,0.0397130745579707,0.00632519062462276,0.087709445040673
16.7,0.0395688175674184,0.00627237731594392,0.0863053211942315
16.8,0.0394915389874047,0.00623069984315682,0.085078346543014
16.9,0.0394801812775385,0.00619983503859503,0.0840200106613338
17,0.0395340258492222,0.00617951951067298,0.0831229002214968
17.1,0.0396526816219607,0.00616954647051721,0.0823806105181575
17.2,0.0398360765028563,0.00616976305525075,0.0817876751534641
17.3,0.0400844515904695,0.00618006817290097,0.0813394994474947
17.4,0.0403983579346788,0.00620041084644134,0.0810323096811771
17.5,0.0407786557715147,0.00623078898740894,0.0808631060644984
17.6,0.0412265161948187,0.00627124855865565,0.0808296240866184
17.7,0.0417434252287739,0.00632188312974126,0.0809303023852408
17.8,0.0423311902802546,0.00638283382652144,0.0811642599292099
17.9,0.0429919489859172,0.00645428965508278,0.0815312769263983
18,0.0437281805004333,0.00653648818318864,0.0820317808538675
18.1,0.04454271929197,0.00662971658231136,0.0826668394729495
18.2,0.0454387715321831,0.00673431304122869,0.0834381580352783
18.3,0.0464199341961685,0.00685066855691753,0.0843480844050646
18.4,0.0474902170164139,0.00697922910792628,0.0853996123187244
18.5,0.0486540674738119,0.00712049822185437,0.0865963981486857
18.6,0.0499163990345029,0.00727503995915239,0.0879427748732269
18.7,0.0512826226397729,0.00744348237513739,0.0894437786191702
18.8,0.0527586821847534,0.00762652136402136,0.0911051742732525
18.9,0.0543510939122224,0.00782492504981623,0.0929334876127541
19,0.0560669901168985,0.00803953872649814,0.0949360458180308
19.1,0.0579141675629026,0.00827129035600687,0.0971210217103362
19.2,0.0599011410727474,0.00852119666498976,0.0994974840432405
19.3,0.0620372027505699,0.00879036991599056,0.102075453847647
19.4,0.0643324873481389,0.00908002541995656,0.104865972883999
19.5,0.0667980443632471,0.00939148984183726,0.107881168834865
19.6,0.0694459175365,0.00972621036372127,0.111134343780577
19.7,0.0722892324789061,0.010085764793501,0.114640054758638
19.8,0.0753422932389227,0.0104718727163934,0.118414219003171
19.9,0.0786206887113062,0.0108864077873934,0.122474220581353
20,0.0821414098941093,0.0113314112720344,0.126839031465352
20.1,0.0859229791111336,0.0118091069608595,0.13152934378013
20.2,0.0899855924402236,0.0123219175993155,0.136567717883736
20.3,0.0943512767270773,0.0128724829872949,0.141978744417429
20.4,0.0990440627194107,0.0134636799175707,0.147789221722633
20.5,0.104090176092904,0.0140986441319252,0.154028355609626
20.6,0.109518248327365,0.014780794511361,0.160727970767766
20.7,0.115359548460474,0.0155138599364386,0.167922756634653
20.8,0.121648240338034,0.0163019084698531,0.175650524906814
20.9,0.128421666220989,0.0171493798149099,0.183952503371984
21,0.135720659936754,0.0180611212139004,0.192873653490096
21.1,0.143589892927498,0.0190424269882379,0.202463024295866
21.2,0.152078256969321,0.0200990820916271,0.212774141225964
21.3,0.161239287538796,0.0212374102358125,0.223865434993058
21.4,0.171131632221019,0.0224643271273768,0.235800715629011
21.5,0.181819569161684,0.0237873993022812,0.248649693094194
21.6,0.193373581185291,0.0252149091297115,0.262488557957113
21.7,0.205870991812372,0.0267559266996009,0.277400615159422
21.8,0.219396670105386,0.0284203893878061,0.293476990889758
21.9,0.234043812093916,0.0302191899349567,0.310817409306765
22,0.249914807447732,0.0321642739622145,0.329531056806445
22.1,0.267122201073364,0.0342687479822127,0.349737530574203
22.2,0.28578976043722,0.036546999097246,0.371567896567285
22.3,0.306053660692012,0.0390148276996271,0.395165854133666
22.4,0.328063801109902,0.0416895946316119,0.420689028687775
22.5,0.351985268357011,0.0445903843623359,0.448310406412929
22.6,0.377999963912111,0.0477381860384928,0.478219916578382
22.7,0.406308407224108,0.0511560958740953,0.510626199189574
22.8,0.437131750885084,0.0548695389147643,0.545758550986648
22.9,0.470714019795998,0.0589065172964246,0.583869093563408
23,0.50732460262318,0.0632978867707153,0.625235176645219
23.1,0.547261025856869,0.0680776636182194,0.670162051916122
23.2,0.590852044665546,0.0732833653002979,0.718985833693296
23.3,0.638461087324758,0.078956389596641,0.772076797205955
23.4,0.690490094145591,0.0851424369759644,0.829843044746667
23.5,0.74738379738631,0.0918919807416722,0.892734572291374
23.6,0.809634494453397,0.0992607902191422,0.961247805971652
23.7,0.877787372683902,0.107310513392382,1.0359306386672
23.8,0.952446450785915,0.116109326142085,1.11738804075867
23.9,1.0342812098599,0.125732655749584,1.20628830883652
24,1.12403399567323,0.136263987166062,1.30337001662701
24.1,1.22252828349068,0.14779576172811,1.40944976359606
24.2,1.3306779075013,0.160430379205135,1.52543080318719
24.3,1.44949737127034,0.17428131478418,1.6523126619868
24.4,1.58011336639934,0.18947436495222,1.79120185272768
24.5,1.72377760325536,0.206149044610565,1.94332383945584
24.6,1.88188123907811,0.224460119530869,2.11003633681685
24.7,2.05597087700905,0.244579355301919,2.29284418141469
24.8,2.24776652029495,0.266697437134284,2.49341589678079
24.9,2.45918160917534,0.29102611873708,2.71360215963796
25,2.69234539856633,0.317800622702905,2.9554564091377
25.1,2.94962794343838,0.347282318085413,3.22125782351941
25.2,3.23366799632176,0.379761701694138,3.51353694684803
25.3,3.54740414728907,0.4155617188615,3.83510425919667
25.4,3.89410956609728,0.455041464479811,4.18908203300089
25.5,4.27743074322514,0.498600305142253,4.5789398229681
25.6,4.70143066624019,0.546682465212267,5.00853404495865
25.7,5.17063690645621,0.599782125421584,5.48215201450512
25.8,5.69009512931045,0.65844908806884,6.00456100283191
25.9,6.26542858144922,0.723295065972086,6.58106281096116
26,6.90290414634318,0.795000654990548,7.21755444258451
26.1,7.60950559543555,0.874323053650408,7.92059550713748
26.2,8.39301469116724,0.962104596972232,8.69748302362859
26.3,9.26210081925892,1.05928217345662,9.55633434886113
26.4,10.2264198362587,1.16689759426992,10.5061789802276
26.5,11.2967228253936,1.28610897829697,11.5570600247011
26.6,12.4849754181052,1.41820321777772,12.7201461391523
26.7,13.8044879827927,1.56460965389421,14.0078548761085
26.8,15.2700577255934,1.7269147965233,15.433987990953
26.9,16.8981225429312,1.90687833807802,17.0138796651736
27,18.7069267585727,2.10645041010668,18.7645582938567
27.1,20.7166984961585,2.32779000070246,20.7049223599024
27.2,22.9498379928889,2.5732844424605,22.8559307027608
27.3,25.4311155057078,2.84556986379968,25.240807203576
27.4,28.1878766726065,3.14755239473023,27.8852595351636
27.5,31.2502522138267,3.48242978195387,30.8177110636607
27.6,34.6513675969377,3.8537129443731,34.0695442571305
27.7,38.4275466934932,4.26524685986897,37.675352924969
27.8,42.6185014935262,4.72122997522443,41.6731997719035
27.9,47.2674975679443,5.22623107507857,46.1048738430254
28,52.421482115549,5.78520225212923,51.01614078274
28.1,58.1311580562253,6.40348628588075,56.4569765650667
28.2,64.450983719876,7.08681634403401,62.4817726258188
28.3,71.439073247001,7.84130546708226,69.1494970554486
28.4,79.1569679225126,8.67342279778282,76.5237926873378
28.5,87.6692434381173,9.58995307140733,84.6729886922985
28.6,97.0429128652425,10.5979353064383,93.6699974415824
28.7,107.346580339037,11.7045746797578,103.592060877942
28.8,118.649294534154,12.9171259721895,114.520310855005
28.9,131.019052843334,14.2427403953586,126.539096373133
29,144.520902958955,15.6882706364369,139.7350276988
29.1,159.214595076095,17.2600302075556,154.195683942176
29.2,175.151747315162,18.9635034255607,170.007928684354
29.3,192.372504713291,20.8030034160029,187.255779194646
29.4,210.901698230312,22.7812783170682,206.017780090217
29.5,230.744547017196,24.8990700145618,226.363843541127
29.6,251.88199598535,27.1546345636479,248.351536945906
29.7,274.265841161155,29.5432391682533,272.021828846075
29.8,297.81386534434,32.0566575584197,297.394335673191
29.9,322.40528219605,34.6826934057858,324.462166044395
30,347.876861340684,37.404769052231,353.186515236739
30.1,374.020170390997,40.2016232849996,383.491227603983
30.2,400.580409130742,43.0471661192073,415.257613889873
30.3,427.257311951804,45.9105391819322,448.319876865484
30.4,453.708415202792,48.7564128506737,482.461522016674
30.5,479.555384144657,51.5455903225008,517.413269949146
30.6,504.393352378241,54.2359233573724,552.852866292
30.7,527.802754759828,56.7834930220587,588.407334191259
30.8,549.363407978516,59.1440063000768,623.657575146761
30.9,568.670722214282,61.2744399686596,658.145940447692
31,585.352550180653,63.1347739765738,691.386592183262
31.1,599.085531621645,64.6896889215802,722.878465744201
31.2,609.609724015992,65.9101135774408,752.120350156445
31.3,616.740542402119,66.7745264754556,778.627341451589
31.4,620.376798995336,67.2698830244001,801.948066452518
31.5,620.504194466157,67.3920914886999,821.68139582593
31.6,617.194337740531,67.1460360843923,837.491782905068
31.7,610.599069701327,66.5451214085839,849.122045604046
31.8,600.941119823845,65.6104254424278,856.403243081644
31.9,588.501518478578,64.3694959300768,859.260471357964
32,573.605289245646,62.8549408721872,857.714475013316
32.1,556.606340590678,61.1029035777332,851.878964215051
32.2,537.872696023637,59.1515370814828,841.953870811965
32.3,517.772809130579,57.0395629927952,828.215584406164
32.4,496.663754204308,54.8049902882174,811.004009312019
32.5,474.881674641405,52.4840504533278,790.707898641936
32.6,452.734653949581,50.1103728215785,767.749371343292
32.7,430.497940392515,47.7143983157867,742.568604054861
32.8,408.411315416087,45.323015518356,715.609341830481
32.9,386.678313608578,42.959395657508,687.30595093267
33,365.466954009508,40.6429960258877,658.072434116621
33.1,344.911621126866,38.3896959012809,628.293740052264
33.2,325.115745100079,36.212028762846,598.319508994464
33.3,306.154971841593,34.1194787271154,568.459731140174
33.4,288.080570341534,32.1188143148975,538.982802106068
33.5,270.922879605306,30.2144372904339,510.115360490512
33.6,254.694646066286,28.4087288579436,482.043512249365
33.7,239.394145617149,26.7023802651984,454.915088416077
33.8,225.008023743907,25.0946992433023,428.84269225318
33.9,211.513820210236,23.5838871680396,403.907278743107
34,198.882168987449,22.1672844421856,380.161991215311
34.1,187.078680469655,20.8415836354921,357.636024486739
34.2,176.065530034818,19.6030118208411,336.338361648377
34.3,165.802751736746,18.4474826193151,316.261287360918
34.4,156.249302558805,17.3707221320687,297.38361284975
34.5,147.363917925679,16.3683716997757,279.673567405902
34.6,139.105777114728,15.4360700379916,263.091335505247
34.7,131.435005899975,14.5695170741091,247.591242032591
34.8,124.31304878156,13.764522254443,233.123603789136
34.9,117.702936714228,13.0170403051955,219.636273137294
35,111.569468175328,12.3231968695983,207.07590302499
35.1,105.879318475337,11.679305667613,195.388964513317
35.2,100.601092233082,11.0818785747271,184.522548071574
35.3,95.705332687703,10.5276301396957,174.424981563818
35.4,91.1644985330763,10.0134779598212,165.046292648185
35.5,86.9529162249745,9.53653992325112,156.338541212026
35.6,83.0467142241757,9.09412900230244,148.256044630427
35.7,79.423744775521,8.68374621850654,140.755516522564
35.8,76.0634978317796,8.30307239292997,133.796136963181
35.9,72.9470106087424,7.94995916609218,127.339568907395
36,70.0567753426301,7.62241959847247,121.349932747893
36.1,67.3766472183266,7.3186185761894,115.793749082834
36.2,64.8917539453719,7.03686322160338,110.639858318027
36.3,62.5884083796414,6.77559353029772,105.859324277379
36.4,60.4540246115831,6.53337328333649,101.425327231176
36.5,58.4770381297526,6.30888132103541,97.3130505769514
36.6,56.6468304685231,6.10090324670618,93.4995645484887
36.7,54.9536585007109,5.90832359617628,89.9637096491642
36.8,53.3885883518857,5.73011847935022,86.6859818818048
36.9,51.9434338574912,5.5653486925188,83.6484212214127
37,50.6106994655271,5.413153300276,80.8345043468289
37.1,49.3835274440983,5.2727436798186,78.2290423326194
37.2,48.2556491992075,5.14339801066495,75.8180838013068
37.3,47.2213404779298,5.02445618764411,73.5888237305917
37.4,46.2753802290666,4.9153151350742,71.5295180827379
37.5,45.4130128985478,4.81542450061136,69.6294041899964
37.6,44.6299139382185,4.72428270617966,67.8786267787218
37.7,43.922158307197,4.64143333240199,66.2681694370694
37.8,43.2861917509468,4.56646181347034,64.789791315794
37.9,42.7188046544819,4.49899242072021,63.4359688018449
38,42.217108278466,4.43868551423316,62.1998419035226
38.1,41.778513198287,4.3852350425892,61.0751650612801
38.2,41.4007098010253,4.33836627204079,60.0562620982528
38.3,41.0816505790107,4.29783372887747,59.1379850478843
38.4,40.8195342092255,4.26341933224849,58.315676565282
38.5,40.6127912463413,4.23493070876851,57.5851356959902
38.6,40.4600712613896,4.2121996770552,56.9425867344253
38.7,40.360231306291,4.195080884229,56.3846509540454
38.8,40.3123256203898,4.18345057907728,55.9083209848031
38.9,40.3155964890358,4.17720551351348,55.5109376288019
39,40.3694661528262,4.17626196487327,55.1901689278893
39.1,40.4735296729157,4.18055486805203,54.9439913071692
39.2,40.627548672983,4.19003704598744,54.7706726263277
39.3,40.8314458866974,4.20467853015415,54.6687569827773
39.4,41.0853004404355,4.2244659646779,54.6370511343703
39.5,41.3893438018542,4.24940208681012,54.6746123945341
39.6,41.7439563283683,4.27950527563366,54.7807378815487
39.7,42.1496643530517,4.31480916168029,54.9549550088122
39.8,42.6071377469671,4.35536229125101,55.1970130922273
39.9,43.1171878969308,4.40122783925203,55.5068759992719
40,43.6807660372407,4.45248336383401,55.8847157116979
40.1,44.2989618730558,4.5092205960331,56.3309067282826
40.2,44.9730024341059,4.57154525785,56.8460212028585
40.3,45.7042510805689,4.63957690236821,57.4308247347362
40.4,46.494206607398,4.71344876798223,58.0862727207132
40.5,47.344502367911,4.79330764008999,58.8135071825236
40.6,48.2569053323502,4.87931371266143,59.6138539761305
40.7,49.2333149961216,4.97164044076619,60.4888202906586
40.8,50.2757620486165,5.07047437476462,61.4400923475623
40.9,51.3864067038761,5.17601496688391,62.4695331915282
41,52.5675365835963,5.28847434012258,63.5791804767214
41.1,53.821564033716,5.40807700806909,64.7712441287003
41.2,55.1510227467729,5.53505953317072,66.0481037739664
41.3,56.5585635516372,5.66967011029989,67.412305793725
41.4,58.0469492202575,5.81216806156299,68.8665598859079
41.5,59.6190481287341,5.96282322702766,70.4137349626981
41.6,61.2778265977762,6.12191523475825,72.0568542471156
41.7,63.0263397253415,6.28973263245797,73.7990893837996
41.8,64.867720512073,6.46657186197661,75.6437533819117
41.9,66.805167068425,6.65273605682476,77.5942921936512
42,68.8419276817225,6.84853364175376,79.6542747169733
42.1,70.9812835120904,7.05427671257775,81.8273809938692
42.2,73.2265286629497,7.27027917429158,84.1173883667216
42.3,75.5809474496192,7.49685461064512,86.5281553422101
42.4,78.0477885416628,7.73431387091027,89.0636028908193
42.5,80.6302357590929,7.98296234522401,91.7276929393411
42.6,83.3313753189803,8.24309690315303,94.5244037341326
42.7,86.1541593243977,8.51500247839025,97.4577018301934
42.8,89.1013652957723,8.79894828461951,100.531510398723
42.9,92.175551586153,9.09518364549595,103.749673609622
43,95.3790085777126,9.40393342470666,107.115916805808
43.1,98.7137056143703,9.72539305044662,110.63380225189
43.2,102.181233691251,10.0597231364391,114.306680234615
43.3,105.782744005469,10.4070437075832,118.137635378167
43.4,109.518882575582,10.76742804615,122.129428046755
43.5,113.389721256035,11.1408961859622,126.2844308028
43.6,117.394685606755,11.5274080952635,130.604559983592
43.7,121.532480227994,11.9268566025045,135.091202528216
43.8,125.801012336186,12.3390601338332,139.745138337836
43.9,130.197314535907,12.7637553476425,144.566458558198
44,134.717467932655,13.200589769579,149.554480351973
44.1,139.356526927514,13.649114549824,154.707658884581
44.2,144.108447258294,14.1087774825714,160.023497443646
44.3,148.96601890814,14.5789164483156,165.498456808738
44.4,153.920805928911,15.0587534484278,171.127865185495
44.5,158.963095210388,15.5473894274808,176.905830251053
44.6,164.081856339968,16.0438000900351,182.825155063998
44.7,169.264714813139,16.546832920818,188.87725979602
44.8,174.497940906933,17.055205620976,195.052111437544
44.9,179.766456473402,17.5675061761183,201.338163761422
45,185.053861770995,18.0821947639369,207.722310005687
45.1,190.342484242875,18.597607688785,214.189850755502
45.2,195.613450858162,19.1119635034044,220.724479564931
45.3,200.846785237128,19.6233714453651,227.308288766537
45.4,206.021530283402,20.1298422737448,233.921797798015
45.5,211.115896456887,20.6293015384165,240.544006145559
45.6,216.107435153582,21.119605252876,247.152472662739
45.7,220.973235927508,21.5985578750278,253.723422598559
45.8,225.690145515869,22.0639324297735,260.231883165427
45.9,230.235005838835,22.5134925336401,266.651847840287
46,234.584907372539,22.9450160081096,272.956468894146
46.1,238.717453570521,23.3563196986094,279.118276903871
46.2,242.611031184654,23.7452850404808,285.109425137751
46.3,246.245081847595,24.1098839306099,290.901956005022
46.4,249.600367970395,24.4482043004114,296.468085824046
46.5,252.659227272505,24.7584748427567,301.780503426213
46.6,255.405810319213,25.0390883488763,306.812677470502
46.7,257.826295374515,25.2886231179443,311.539166786242
46.8,259.909075113657,25.5058619189319,315.935927620623
46.9,261.644910496869,25.6898080338363,319.980611446779
47,263.027048088533,25.8396979923606,323.652846897952
47.1,264.051298099772,25.9550107031704,326.934499576688
47.2,264.716071453842,26.0354727822343,329.809903888032
47.3,265.022375288184,26.0810599763847,332.26606151415
47.4,264.973767483601,26.0919946861927,334.292802056298
47.5,264.576271954751,26.0687397022249,335.88290220825
47.6,263.838257472361,26.0119883712609,337.032160889357
47.7,262.770283685038,25.9226514973704,337.7394288918
47.8,261.384918751241,25.8018413571356,338.006592777092
47.9,259.69653355921,25.6508532691104,337.838513950352
48,257.721077884705,25.4711452018946,337.242924980354
48.1,255.475844007313,25.2643159302045,336.230286255013
48.2,252.979223380936,25.0320822607497,334.813606983982
48.3,250.250461178968,24.7762558047872,333.008235259447
48.4,247.309414375935,24.4987198116103,330.831622511148
48.5,244.176317564018,24.2014065014042,328.303068068344
48.6,240.871560175177,23.8862752786588,325.443449710961
48.7,237.415478376871,23.5552921537008,322.274946043734
48.8,233.828164359988,23.2104106533414,318.820756389759
48.9,230.129294967076,22.8535544446421,315.104823523667
49,226.337980857076,22.4866018259266,311.151564144529
49.1,222.472636797552,22.1113721721862,306.985611378215
49.2,218.550873171488,21.7296143699485,302.631572951097
49.3,214.58940831715,21.3429972344837,298.113808037248
49.4,210.604000891725,20.9531018608617,293.456225018948
49.5,206.609401101544,20.5614158211987,288.682101729326
49.6,202.619319388692,20.1693290905033,283.813929108437
49.7,198.646410990886,19.7781315642975,278.873278603423
49.8,194.702274680959,19.3890120183203,273.880693087354
49.9,190.797463936789,19.0030583513565,268.85560060991
50,186.941508788936,18.6212589476419,263.816249886993
50.1,183.142946635306,18.2445049964733,258.779666133691
50.2,179.409360379343,17.8735936132405,253.76162561914
50.3,175.747422416668,17.5092316070304,248.776647147723
50.4,172.162942974323,17.1520397666923,243.837998590432
50.5,168.660921565489,16.8025575297199,238.957716550678
50.6,165.245600450891,16.461247914974,234.146637235768
50.7,161.920519106169,16.1285026211385,229.414436699823
50.8,158.688568820296,15.8046472045659,224.76967869373
50.9,155.552046698315,15.4899462566359,220.21986848861
51,152.512708477456,15.1846085125259,215.771511145867
51.1,149.571819676514,14.8887918387087,211.430172875524
51.2,146.730204695268,14.6026080579606,207.20054426603
51.3,143.988293573208,14.3261275776034,203.086504322011
51.4,141.346166201885,14.0593837938516,199.091184388846
51.5,138.803593857624,13.8023772538336,195.217031188775
51.6,136.360077981097,13.5550795643732,191.465868331492
51.7,134.014886180584,13.3174370415512,187.838955777232
51.8,131.767085478205,13.089374098876,184.337046847213
51.9,129.615572853046,12.8707963758973,180.960442461073
52,127.559103162241,12.6615936127253,177.709042404313
52.1,125.596314541796,12.4616422783943,174.582393461373
52.2,123.725751404019,12.2708079623895,171.579734356143
52.3,121.945885159463,12.088947540973,168.700037476141
52.4,120.255132798381,11.9159111289669,165.942047395743
52.5,118.651873468174,11.7515438302136,163.304316274822
52.6,117.134463184872,11.5956872999878,160.785236221738
52.7,115.701247815743,11.4481811319491,158.383068738971
52.8,114.350574466526,11.3088640820203,156.095971379895
52.9,113.080801401422,11.1775751417434,153.922021776438
53,111.890306618153,11.0541544733406,151.859239167068
53.1,110.777495194237,10.938444217891,149.905603610445
53.2,109.740805513819,10.830289187316,148.059073019307
53.3,108.77871447697,10.7295374503705,146.317598178983
53.4,107.889741785944,10.6360408222725,144.67913590977
53.5,107.072453395526,10.5496552668468,143.141660506371
53.6,106.325464207538,10.4702412193006,141.703173610847
53.7,105.647440082494,10.3976638371094,140.361712630838
53.8,105.037099234646,10.3317931858923,139.115357855335
53.9,104.493213072499,10.2725043670107,137.96223840164
54,104.014606520696,10.2196775889087,136.900536824018
54.1,103.600157886207,10.173198194329,135.928493462503
54.2,103.248798362442,10.1329566449698,135.044409114867
54.3,102.959511126062,10.0988484618763,134.246646786574
54.4,102.731330071805,10.0707741318191,133.533633004874
54.5,102.563338255851,10.0486389840564,132.903858897276
54.6,102.454666048593,10.0323530338102,132.355880433694
54.7,102.40448901562,10.0218307965557,131.888317921199
54.8,102.412025550218,10.0169910775452,131.49985495396
54.9,102.47653429367,10.0177567399713,131.189236911945
55,102.597311242809,10.0240544420652,130.955269494094
55.1,102.773687177438,10.035814400934,130.796815280803
55.2,103.005023821218,10.052970040679,130.712792510167
55.3,103.290710253086,10.0754576561232,130.702172742225
55.4,103.630159669047,10.1032161075287,130.763977023307
55.5,104.022805926516,10.1361865018544,130.897271495778
55.6,104.468099449409,10.1743118145607,131.101163797081
55.7,104.965502850896,10.2175364757707,131.374799553305
55.8,105.514486594452,10.2658059570176,131.717358220834
55.9,106.114524633366,10.3190663627682,132.128048405051
56,106.765089844763,10.3772640051977,132.606102854945
56.1,107.465649217818,10.4403449496211,133.150774264243
56.2,108.215658875251,10.5082545406498,133.7613290851
56.3,109.014558991244,10.5809369229578,134.43704192806
56.4,109.86176859512,10.6583345524623,135.177190610208
56.5,110.756680240997,10.7403876920203,135.981050868984
56.6,111.698654550096,10.8270338930903,136.847890082747
56.7,112.687014652951,10.9182074685689,137.776960656978
56.8,113.721040556839,11.0138389590813,138.767493670806
56.9,114.799963455463,11.1138545925822,139.818692599889
57,115.922959998051,11.2181757384772,140.92972679669
57.1,117.08914654265,11.3267183594381,142.099724680185
57.2,118.297573425221,11.4393924641473,143.327766802628
57.3,119.5472192789,11.5561015635774,144.61287892703
57.4,120.83698543915,11.6767421337125,145.954025093932
57.5,122.165690473592,11.8012030884719,147.350100637414
57.6,123.532064879907,11.9293652670321,148.799925182946
57.7,124.934745999498,12.0611009397988,150.302235705778
57.8,126.372273197876,12.1962733375242,151.855679688044
57.9,127.843083365457,12.334736208528,153.458808427677
58,129.345506795451,12.4763334093492,155.110070532653
58.1,130.877763498329,12.6208985343303,156.807805651799
58.2,132.43796001604,12.7682545897747,158.550238510594
58.3,134.024086793818,12.918213718766,160.335473317187
58.4,135.63401618069,13.0705769821692,162.161488600541
58.5,137.26550111766,13.2251342016868,164.02613245137
58.6,138.916174604988,13.3816638755353,165.927118899301
58.7,140.583549990429,13.5399331652877,167.862023321446
58.8,142.265022046886,13.6996979595981,169.828280268237
58.9,143.957869038066,13.8607030279688,171.823182363529
59,145.659255788787,14.022682265552,173.843879393302
59.1,147.366237749582,14.185359028203,175.887377375737
59.2,149.075766131843,14.3484465690222,177.950539141428
59.3,150.784694146714,14.5116485790126,180.030086460523
59.4,152.489784358921,14.6746598318445,182.122603357304
59.5,154.187717097267,14.837166927694,184.224540652707
59.6,155.875100299576,14.9988491707728,186.332220750861
59.7,157.54847862924,15.1593793878716,188.441846909933
59.8,159.204347331166,15.3184251715485,190.549508758355
59.9,160.839165635734,15.4756501074919,192.651190591976
60,162.449369276156,15.6307149261459,194.742783365306
60.1,164.031383960888,15.7832787304724,196.820098588709
60.2,165.581641193924,15.9330004413118,198.878881359939
60.3,167.096595212194,16.0795403672451,200.914823894389
60.4,168.572739813503,16.2225617770454,202.923580986913
60.5,170.006625109785,16.3617324638919,204.900787129067
60.6,171.394874692938,16.496726349132,206.842074830551
60.7,172.734203244867,16.6272251387303,208.743091868237
60.8,174.021434192883,16.7529199965301,210.599522594828
60.9,175.253517049033,16.8735131949464,212.407108278014
61,176.427544295632,16.988719728391,214.161666261498
61.1,177.540767752826,17.0982688865809,215.859109708108
61.2,178.590614284777,17.2019057760553,217.495468995068
61.3,179.574700634165,17.299392768444,219.066913260613
61.4,180.490847191109,17.3905108555216,220.569770867005
61.5,181.337090551459,17.4750608976012,222.000548865646
61.6,182.111694743905,17.5528647543589,223.355951961596
61.7,182.813161005946,17.6237662859186,224.632900920231
61.8,183.440235993374,17.6876322118851,225.828549922444
61.9,183.991918328292,17.7443528184537,226.940302483737
62,184.467463417747,17.7938425065821,227.965825848281
62.1,184.866386498742,17.836040176052,228.903063823003
62.2,185.188463891542,17.8709094422064,229.750247949269
62.3,185.433732430688,17.8984386819086,230.505906815641
62.4,185.602487125003,17.9186409112865,231.168873387855
62.5,185.695277080777,17.9315534979358,231.738290295936
62.6,185.712899740806,17.9372377117349,232.213613060769
62.7,185.656393519162,17.9357781203736,232.594611227512
62.8,185.527028936022,17.9272818380694,232.881367405877
62.9,185.32629837062,17.9118776377684,233.074274223298
63,185.055904559957,17.8897149382284,233.17402925482
63.1,184.717747981595,17.8609626782414,233.181628008839
63.2,184.313913269442,17.8258080912726,233.098355053924
63.3,183.846654818715,17.7844553947504,232.925773411989
63.4,183.318381739436,17.7371244087817,232.665712340735
63.5,182.731642318282,17.6840491191823,232.320253658108
63.6,182.089108147222,17.6254761996534,231.891716767102
63.7,181.393558074101,17.5616635077898,231.382642557845
63.8,180.647862124852,17.4928785692655,230.79577635508
63.9,179.854965539495,17.4193970639453,230.13405010337
64,179.017873054842,17.3415013268806,229.40056396788
64.1,178.139633556416,17.2594788762562,228.598567529116
64.2,177.223325208609,17.1736209792809,227.73144075647
64.3,176.272041170039,17.0842212663239,226.802674935665
64.4,175.288875970298,16.991574401967,225.815853700507
64.5,174.276912622957,16.8959748204549,224.774634341244
64.6,173.239210537799,16.7977155319903,223.682729515247
64.7,172.178794280058,16.6970870053043,222.543889501598
64.8,171.098643209758,16.5943761306249,221.36188511271
64.9,170.00168202299,16.4898652658192,220.140491364524
65,168.890772207018,16.3838313674213,218.883471988142
65.1,167.76870441097,16.2765452074089,217.59456486674
65.2,166.638191723817,16.1682706756875,216.277468448505
65.3,165.501863842448,16.0592641672843,214.935829172377
65.4,164.362262105309,15.9497740524309,213.573229954578
65.5,163.221835360697,15.8400402270864,212.193179734051
65.6,162.082936633339,15.7302937409239,210.799104099628
65.7,160.947820548232,15.6207564992951,209.394336977974
65.8,159.818641467072,15.511641035252,207.982113374397
65.9,158.697452289925,15.4031503473909,206.56556313578
66,157.586203872906,15.2954777990705,205.147705713287
66.1,156.486745014567,15.1888070744384,203.731445792131
66.2,155.400822941109,15.0833121865453,202.319570303895
66.3,154.330084348931,14.9791575375473,200.914744942915
66.4,153.276076712456,14.8764980114522,199.51951289596
66.5,152.240249981666,14.7754791077917,198.136294575408
66.6,151.223958632565,14.6762371102787,196.767387541942
66.7,150.228464103753,14.5788992920004,195.414965813048
66.8,149.254936993505,14.4835841069339,194.08108236827
66.9,148.304460317568,14.3904014769169,192.767668089829
67,147.378032575651,14.2994530701904,191.476533242036
67.1,146.476570492198,14.2108325541187,190.209371519275
67.2,145.60091184043,14.1246258547404,188.967763610184
67.3,144.751818687667,14.0409114550321,187.753180409316
67.4,143.92998077881,13.9597607101872,186.56698467955
67.5,143.136018773498,13.8812381535799,185.410433603451
67.6,142.370487338731,13.8054017906185,184.284682615194
67.7,141.633878218529,13.7323033906841,183.190790371504
67.8,140.926623314211,13.6619887813333,182.129720779601
67.9,140.249097713324,13.5944981395663,181.102349086665
68,139.601622608153,13.5298662739977,180.109466080554
68.1,138.984468094984,13.4681228964653,179.15178029146
68.2,138.397855868315,13.4092928844088,178.229920477141
68.3,137.841961811221,13.3533965342955,177.344439974986
68.4,137.316918469142,13.3004498046341,176.495821354445
68.5,136.822817394,13.2504645471388,175.684480065946
68.6,136.359711355123,13.2034487256369,174.910767373629
68.7,135.927616418826,13.1594066228539,174.174973382615
68.8,135.526513897363,13.1183390350368,173.477330320049
68.9,135.15635216585,13.0802434541629,172.818015739322
69,134.817048346366,13.0451142375895,172.197155405767
69.1,134.508489860619,13.0129427652384,171.614825932775
69.2,134.230535854016,12.9837175845265,171.071057296824
69.3,133.983018494211,12.9574245432616,170.56583527429
69.4,133.765744147214,12.9340469107452,170.099103720859
69.5,133.578494434547,12.9135654873815,169.670766663738
69.6,133.421027175628,12.8959587031559,169.280690219719
69.7,133.29307722006,12.8812027053904,168.928704366088
69.8,133.194357174761,12.869271436212,168.614604570903
69.9,133.124558031092,12.8601367001985,168.338153281715
70,133.083349697348,12.8537682226964,168.099081257824
70.1,133.070381442278,12.8501336993262,167.897088761441
70.2,133.085282255362,12.8491988372113,167.731846623588
70.3,133.127661130548,12.8509273885098,167.602997174487
70.4,133.197107278796,12.8552811768193,167.510155060329
70.5,133.293190276009,12.8622201170322,167.452907940838
70.6,133.415460153077,12.871702229249,167.430817075074
70.7,133.563447434692,12.8836836473873,167.443417811766
70.8,133.736663133236,12.8981186231276,167.490219967905
70.9,133.934598706228,12.9149595258058,167.570708213374
71,134.156725975687,12.9341568386188,167.684342108667
71.1,134.402497035424,12.9556591528493,167.830556356814
71.2,134.67134413921,12.979413159772,168.008761034347
71.3,134.962679575342,13.0053636410308,168.218341677915
71.4,135.275895531109,13.0334534578904,168.458659077529
71.5,135.610363987763,13.0636235423787,168.7290495825
71.6,135.965436579437,13.0958128852899,169.028824504931
71.7,136.340444496424,13.1299585269132,169.357269926462
71.8,136.734698438675,13.1659955521485,169.713646958116
71.9,137.147488596661,13.2038570885965,170.097191832028
72,137.578084649123,13.2434743060219,170.507115947083
72.1,138.025735807602,13.2847764190547,170.942605262622
72.2,138.489670921134,13.3276906952626,171.402820209041
72.3,138.969098645553,13.3721424688829,171.886895840522
72.4,139.463207678977,13.4180551608296,172.393942118622
72.5,139.97116706808,13.4653503049553,172.923043482471
72.6,140.492126592309,13.5139475811915,173.473259437829
72.7,141.025217232061,13.563764856293,174.043624872342
72.8,141.569551725614,13.614718232752,174.633150022477
72.9,142.124225219045,13.6667221062771,175.240820560604
73,142.688316013146,13.7196892321891,175.865598087199
73.1,143.26088641093,13.7735308010947,176.506421088707
73.2,143.84098366863,13.8281565241663,177.16220547026
73.3,144.427641052448,13.8834747282863,177.831845080014
73.4,145.019878994479,13.9393924605023,178.514212513808
73.5,145.616706399597,13.9958156065206,179.208160198294
73.6,146.217121820807,14.0526489976011,179.91252176743
73.7,146.820115225946,14.1097965708026,180.626112930942
73.8,147.424669669841,14.1671615232151,181.347732728347
73.9,148.029762826018,14.2246464538552,182.076165214647
74,148.634368632582,14.2821535136015,182.810181217268
74.1,149.237459242416,14.3395845831478,183.548539972864
74.2,149.838007115707,14.3968414676366,184.289990842342
74.3,150.434987104634,14.4538260915691,185.033275295515
74.4,151.027378548553,14.5104406930355,185.777129077353
74.5,151.614167455897,14.566588025858,186.520284500439
74.6,152.194348787419,14.6221715728883,187.261472543702
74.7,152.766928799165,14.6770957661194,187.999425595161
74.8,153.330927409676,14.7312662090785,188.732880040072
74.9,153.885380585642,14.78458990102,189.460578676313
75,154.429342749138,14.8369754640103,190.18127326807
75.1,154.961889198033,14.8883333722737,190.893727418501
75.2,155.482118521205,14.9385761816599,191.596719534602
75.3,155.989154991277,14.9876187574552,192.289045703132
75.4,156.482150922714,15.0353784996334,192.969522522762
75.5,156.96028898453,15.0817755646922,193.636989999097
75.6,157.422784454881,15.126733082766,194.29031448625
75.7,157.868887403184,15.1701773685463,194.928391624242
75.8,158.297884785893,15.2120381247367,195.550149217714
75.9,158.709102443363,15.2522486369177,196.154550063889
76,159.101906985936,15.2907459586687,196.740594724659
76.1,159.475707557616,15.3274710857677,197.307324233465
76.2,159.829957466058,15.3623691183719,197.853822713718
76.3,160.164155668212,15.3953894101476,198.379219883122
76.4,160.477848102445,15.4264857034653,198.882693432737
76.5,160.770628858722,15.4556162497849,199.363471277524
76.6,161.042141179396,15.4827439144513,199.820833650883
76.7,161.292078284218,15.5078362652507,200.25411504088
76.8,161.520184014478,15.5308656441923,200.662705954164
76.9,161.726253292412,15.5518092220739,201.046054484323
77,161.910132393907,15.5706490356342,201.403667731211
77.1,162.071719028223,15.5873720061235,201.735112779308
77.2,162.210962222489,15.6019699406607,202.040018148255
77.3,162.327862044669,15.6144395168909,202.31807430787
77.4,162.422469128855,15.624782248796,202.569033845328
77.5,162.494884013047,15.6330044351161,202.792711696122
77.6,162.545256305953,15.6391170919842,202.988985571079
77.7,162.573783682845,15.6431358685293,203.157795938663
77.8,162.580710716375,15.6450809460866,203.299145583063
77.9,162.566327551998,15.6449769222714,203.413098919671
78,162.530968448602,15.6428526818841,203.499781078659
78.1,162.475010129882,15.6387412496932,203.55937723862
78.2,162.39887031382,15.6326796578735,203.592130111996
78.3,162.303005519467,15.6247087480422,203.598339916673
78.4,162.187909014889,15.6148729830998,203.578363393433
78.5,162.054108978878,15.6032202773173,203.532611370552
78.6,161.902166574453,15.5898018187678,203.461545866448
78.7,161.73267369889,15.5746718618197,203.365678147413
78.8,161.546250609401,15.5578875062916,203.245567039587
78.9,161.343543616128,15.5395084811348,203.101816731039
79,161.125222829536,15.5195969326743,202.935074154753
79.1,160.891979872018,15.4982172092971,202.746026140172
79.2,160.64452553376,15.4754356401013,202.535397634842
79.3,160.383587421061,15.4513203117533,202.303947918583
79.4,160.109907639211,15.4259408478404,202.052467597183
79.5,159.824240515159,15.3993681914735,201.781776483636
79.6,159.52735035187,15.3716743902831,201.492721372284
79.7,159.220009218074,15.3429323840472,201.18617293844
79.8,158.902994787986,15.3132157964312,200.863022457808
79.9,158.5770882437,15.2825987321777,200.524178937078
80,158.243072246007,15.2511555803178,200.17056655325
80.1,157.90172897654,15.2189608236617,199.803122045472
80.2,157.553838255425,15.1860888550259,199.422791976016
80.3,157.200175740364,15.1526138008172,199.030530030839
80.4,156.841511211238,15.1186093524612,198.627294454258
80.5,156.478606943122,15.0841486059503,198.214045620989
80.6,156.11221616962,15.0493039097157,197.791743661277
80.7,155.743081637968,15.0141467210314,197.361346154939
80.8,155.371934256954,14.978747471117,196.923805914354
80.9,154.999491838142,14.9431754390148,196.480068882927
81,154.626457930159,14.9074986342458,196.031072147191
81.1,154.253520745248,14.871783688212,195.577742050868
81.2,153.881352176847,14.8360957542737,195.120992417447
81.3,153.510606906539,14.8004984163792,194.661722878926
81.4,153.141921598356,14.7650536060799,194.200817319565
81.5,152.775914178016,14.72982152773,193.73914243374
81.6,152.413183194388,14.6948605916415,193.277546396479
81.7,152.054307260179,14.660227354937,192.816857638303
81.8,151.699844568676,14.625976469815,192.357883727644
81.9,151.350332483145,14.5921606389236,191.901410364546
82,151.006287195374,14.5588305775249,191.448200471699
82.1,150.66820344972,14.5260349821166,190.998993391637
82.2,150.336554327953,14.4938205050467,190.55450415425
82.3,150.011791098388,14.4622317356611,190.115422944538
82.4,149.694343106909,14.4313111852133,189.682414365932
82.5,149.384617726013,14.4010992780211,189.256117092445
82.6,149.083000357183,14.3716343480626,188.837143660057
82.7,148.789854471894,14.3429526392843,188.426080199424
82.8,148.505521682045,14.3150883086676,188.023486079648
82.9,148.230321851652,14.2880734336508,187.629893695004
83,147.964553246536,14.2619380235695,187.24580840813
83.1,147.708492714315,14.236710034226,186.87170855701
83.2,147.462395889441,14.212415385015,186.508045508992
83.3,147.226497420712,14.1890779783798,186.155243648682
83.4,147.00101121963,14.166719721469,185.813700702973
83.5,146.786130727485,14.1453605497999,185.483787798323
83.6,146.582029198726,14.1250184526736,185.165849507786
83.7,146.388859996215,14.105709499914,184.860204077326
83.8,146.206756908689,14.0874478708517,184.567143764347
83.9,146.035834420856,14.0702458791739,184.286935564131
84,145.876188103644,14.0541140090448,184.019820970017
84.1,145.727894968849,14.0390609478881,183.766016139649
84.2,145.591013773188,14.0250936147511,183.525712556671
84.3,145.465585324679,14.0122171893238,183.29907768406
84.4,145.351632839118,14.0004351455555,183.086255227681
84.5,145.249162313299,13.9897492866757,182.887365318369
84.6,145.158162880927,13.9801597787169,182.70250488352
84.7,145.078607153621,13.9716651829192,182.53174813604
84.8,145.010451564626,13.9642624885103,182.375147118699
84.9,144.953636721396,13.9579471462607,182.232731728815
85,144.908087760775,13.9527131022556,182.104510630947
85.1,144.873714700932,13.9485528314446,181.990471816156
85.2,144.850412790495,13.945457371016,181.890582729131
85.3,144.838062858005,13.943416353813,181.804790433031
85.4,144.836531663006,13.9424180418771,181.733022160362
85.5,144.84567224805,13.9424493600805,181.675185961183
85.6,144.865324291021,13.9434959298108,181.631171165965
85.7,144.895314458292,13.9455421027369,181.600848734379
85.8,144.935456759687,13.9485709947267,181.584071632009
85.9,144.985552905983,13.952564519981,181.580675295088
86,145.045392669339,13.9575034254325,181.590478105936
86.1,145.114754247133,13.9633673254476,181.613281835802
86.2,145.193404629807,13.9701347368835,181.648872076068
86.3,145.281099973473,13.9777831145647,181.697018671315
86.4,145.377585977941,13.986288887245,181.757476176135
86.5,145.482598270808,13.9956274941133,181.829984313808
86.6,145.595862798203,14.005773421901,181.914268436376
86.7,145.717096222801,14.0167002426456,182.010039983783
86.8,145.846006329727,14.0283806521699,182.116996952333
86.9,145.982292440899,14.0407865093321,182.234824372921
87,146.125645838332,14.0538888760961,182.363194793463
87.1,146.275750196864,14.0676580584677,182.501768776681
87.2,146.432282026719,14.0820636483376,182.65019539604
87.3,146.594911126259,14.0970745662696,182.808112750296
87.4,146.763301045226,14.1126591052615,182.975148482248
87.5,146.937109558674,14.1287849755056,183.150920313317
87.6,147.115989151728,14.145419350163,183.335036585573
87.7,147.299587515239,14.1625289121619,183.527096819598
87.8,147.487548052286,14.1800799020224,183.726692282129
87.9,147.679510395408,14.1980381666983,183.933406564407
88,147.875110934356,14.216369209423,184.146816179622
88.1,148.07398335404,14.2350382405333,184.366491163615
88.2,148.275759182266,14.2540102292379,184.591995701194
88.3,148.480068346764,14.2732499562883,184.822888751514
88.4,148.686539740879,14.2927220674987,185.058724698145
88.5,148.894801797213,14.312391128054,185.299054002389
88.6,149.104483068416,14.3322216775331,185.543423876166
88.7,149.315212814229,14.352178285569,185.791378958616
88.8,149.526621593756,14.3722256080557,186.042462009937
88.9,149.738341861885,14.3923284438026,186.296214612201
89,149.950008568658,14.4124517915295,186.552177879494
89.1,150.161259760339,14.432560907087,186.809893176891
89.2,150.371737180818,14.4526213607802,187.068902844097
89.3,150.581086871947,14.4725990946642,187.328750930261
89.4,150.788959771308,14.4924604796752,187.588983924594
89.5,150.995012305875,14.5121723724552,187.849151499569
89.6,151.198906979978,14.5317021717208,188.108807245735
89.7,151.400312955914,14.5510178740244,188.367509415373
89.8,151.598906625564,14.5700881287522,188.624821657781
89.9,151.794372171285,14.5888822921989,188.880313754547
90,151.986402114396,14.6073704805588,189.133562342729
90.1,152.174697849523,14.6255236216719,189.384151642676
90.2,152.358970163101,14.6433135053617,189.631674162578
90.3,152.538939734368,14.6607128322056,189.875731398817
90.4,152.714337617141,14.6776952605779,190.115934521891
90.5,152.884905700766,14.6942354518101,190.351905046031
90.6,153.050397148674,14.7103091133154,190.583275482524
90.7,153.21057681302,14.7258930395293,190.809689967893
90.8,153.365221623949,14.7409651505294,191.030804877169
90.9,153.514120952115,14.7555045281964,191.246289406437
91,153.657076943173,14.7694914497896,191.455826140009
91.1,153.793904823037,14.7829074188205,191.659111575224
91.2,153.924433172847,14.7957351931129,191.85585663002
91.3,154.048504172647,14.8079588099548,192.045787112787
91.4,154.165973812924,14.8195636082503,192.228644167073
91.5,154.276712073278,14.830536247596,192.404184667859
91.6,154.380603067616,14.8408647242183,192.572181595024
91.7,154.477545155403,14.8505383837172,192.732424365822
91.8,154.567451018635,14.8595479305776,192.884719127789
91.9,154.650247704324,14.8678854344219,193.028889011126
92,154.725876632473,14.875544332988,193.164774346631
92.1,154.794293569203,14.8825194318127,193.29223284591
92.2,154.855468567783,14.8888069007691,193.411139682401
92.3,154.909385866274,14.8944042667032,193.521387716755
92.4,154.956043765021,14.899310403871,193.622887477279
92.5,154.995454470721,14.9035255211394,193.715567072853
92.6,155.02764390409,14.9070511457884,193.799372137059
92.7,155.052651472432,14.9098901040633,193.874265848193
92.8,155.070529814315,14.9120464989303,193.940228848252
92.9,155.081344517096,14.9135256851116,193.997259070165
93,155.085173806831,14.9143342414224,194.045371507294
93.1,155.082108213537,14.914479940702,194.084597954061
93.2,155.072250198818,14.9139717161549,194.114986828063
93.3,155.055713827714,14.9128196315038,194.136602498125
93.4,155.032624283224,14.9110348367425,194.149525328074
93.5,155.003117414148,14.908629526553,194.153851469979
93.6,154.967339331959,14.9056169029983,194.149692269508
93.7,154.925445988859,14.9020111364693,194.137173557188
93.8,154.877602683072,14.8978273198874,194.116435215808
93.9,154.82398353445,14.8930814199342,194.08763083443
94,154.764770972255,14.8877902291535,194.050927229226
94.1,154.700155231515,14.8819713187213,194.006503853481
94.2,154.63033383701,14.8756429899943,193.9545521494
94.3,154.555511069435,14.8688242242844,193.895275201183
94.4,154.475897423642,14.8615346317355,193.828886832576
94.5,154.391709067683,14.8537944001417,193.755610912107
94.6,154.303167303272,14.8456242437944,193.675680913497
94.7,154.210498025331,14.837045352142,193.589339439292
94.8,154.113931180999,14.8280793382875,193.496837493498
94.9,154.013700231035,14.8187481876025,193.398433698341
95,153.910041616225,14.8090742067178,193.294393613469
95.1,153.803194229935,14.7990799730028,193.184989135247
95.2,153.693398897416,14.7887882845928,193.070497864392
95.3,153.580897862891,14.778222111064,192.951202431694
95.4,153.46593428581,14.7674045448978,192.827389817219
95.5,153.348751747517,14.7563587538568,192.699350692797
95.6,153.229593769287,14.7451079343677,192.567378790118
95.7,153.108703342501,14.7336752659881,192.431770260911
95.8,152.986322471743,14.7220838670384,192.292823052499
95.9,152.862691731605,14.7103567514804,192.150836281013
96,152.738049837888,14.6985167871117,192.006109627895
96.1,152.612633233769,14.6865866551361,191.858942747582
96.2,152.486675691408,14.6745888111604,191.709634692874
96.3,152.360407929439,14.6625454476639,191.558483354747
96.4,152.234057246681,14.6504784579813,191.405784909148
96.5,152.107847172357,14.6384094018289,191.251833299641
96.6,151.981997133048,14.6263594724009,191.096919716336
96.7,151.856722136532,14.6143494650535,190.941332115326
96.8,151.732232472595,14.6023997475935,190.785354739521
96.9,151.608733430838,14.5905302321752,190.629267669749
97,151.486425035474,14.57876034881,190.473346392158
97.1,151.365501797031,14.5671090204849,190.317861385643
97.2,151.246152480859,14.5555946398831,190.163077731617
97.3,151.128559892267,14.544235047695,190.009254742879
97.4,151.012900678101,14.5330475125042,189.856645613443
97.5,150.899345144522,14.5220487122285,189.705497089308
97.6,150.788057090721,14.5112547170936,189.556049162988
97.7,150.679193658283,14.5006809741149,189.408534779213
97.8,150.572905195872,14.490342293059,189.263179574162
97.9,150.469335138906,14.4802528338537,189.120201624464
98,150.368619903865,14.4704260954167,188.979811219499
98.1,150.270888796854,14.4608749058661,188.842210656032
98.2,150.176263936053,14.4516114140817,188.707594046835
98.3,150.084860187639,14.442647082576,188.576147150714
98.4,149.996785114809,14.4339926816428,188.448047225364
98.5,149.912138939311,14.4256582847205,188.323462881614
98.6,149.831014516331,14.4176532650934,188.202554001939
98.7,149.753497319443,14.4099862934818,188.085471569095
98.8,149.679665437839,14.4026653369322,187.972357616294
98.9,149.60958958579,14.3956976589279,187.863345215563
99,149.54333312207,14.3890898204384,187.758558435831
99.1,149.480952077978,14.3828476817539,187.658112257253
99.2,149.422495196199,14.3769764054143,187.562112533953
99.3,149.368003980177,14.3714804601977,187.470655996352
99.4,149.317512752829,14.3663636260335,187.383830272593
99.5,149.27104872382,14.3616289997516,187.301713920664
99.6,149.228632065124,14.3572790016436,187.224376431201
99.7,149.190275994768,14.3533153828285,187.151878344826
99.8,149.155986868526,14.3497392334058,187.084271275438
99.9,149.125764279297,14.346550991366,187.02159793023
100,149.09960116307,14.343750452159,186.963892186992
